…
    ##   Sepal.Length Sepal.Width Petal.Length Petal.Width Species
    ## 1          5.1         3.5          1.4         0.2  setosa
    ## 2          4.9         3.0          1.4         0.2  setosa
    ## 3          4.7         3.2          1.3         0.2  setosa
    ## 4          4.6         3.1          1.5         0.2  setosa
    ## 5          5.0         3.6          1.4         0.2  setosa
    ## 6          5.4         3.9          1.7         0.4  setosa

``` r
as_tibble(iris)
```

    ## # A tibble: 150 x 5
    ##    Sepal.Length Sepal.Width Petal.Length Petal.Width Species
    ##           <dbl>       <dbl>        <dbl>       <dbl> <fct>  
    ##  1          5.1         3.5          1.4         0.2 setosa 
    ##  2          4.9         3            1.4         0.2 setosa 
    ##  3          4.7         3.2          1.3         0.2 setosa 
    ##  4          4.6         3.1          1.5         0.2 setosa 
    ##  5          5           3.6          1.4         0.2 setosa 
    ##  6          5.4         3.9          1.7         0.4 setosa 
    ##  7          4.6         3.4          1.4         0.3 setosa 
    ##  8          5           3.4          1.5         0.2 setosa 
    ##  9          4.4         2.9          1.4         0.2 setosa 
    ## 10          4.9         3.1          1.5         0.1 setosa 
    ## # ... with 140 more rows
…
**glance** devolve um tibble com exatamente uma linha de qualidade de
medidas de condicionamento físico e estatísticas relacionadas. Isso é
útil para verificar a especificação incorreta do modelo e comparar
muitos modelos.

``` r
augment(fit, data = iris)
```

    ## # A tibble: 150 x 12
    ##    Sepal.Length Sepal.Width Petal.Length Petal.Width Species .fitted
    ##           <dbl>       <dbl>        <dbl>       <dbl> <fct>     <dbl>
    ##  1          5.1         3.5          1.4         0.2 setosa     3.30
    ##  2          4.9         3            1.4         0.2 setosa     3.30
    ##  3          4.7         3.2          1.3         0.2 setosa     3.33
    ##  4          4.6         3.1          1.5         0.2 setosa     3.27
    ##  5          5           3.6          1.4         0.2 setosa     3.30
    ##  6          5.4         3.9          1.7         0.4 setosa     3.30
    ##  7          4.6         3.4          1.4         0.3 setosa     3.34
    ##  8          5           3.4          1.5         0.2 setosa     3.27
    ##  9          4.4         2.9          1.4         0.2 setosa     3.30
    ## 10          4.9         3.1          1.5         0.1 setosa     3.24
    ## # ... with 140 more rows, and 6 more variables: .se.fit <dbl>,
    ## #   .resid <dbl>, .hat <dbl>, .sigma <dbl>, .cooksd <dbl>,
    ## #   .std.resid <dbl>
…
